<?xml version="1.0" encoding="UTF-8" standalone="no"?><svg xmlns="http://www.w3.org/2000/svg" xmlns:xlink="http://www.w3.org/1999/xlink" contentScriptType="application/ecmascript" contentStyleType="text/css" height="391px" preserveAspectRatio="none" style="width:895px;height:391px;" version="1.1" viewBox="0 0 895 391" width="895px" zoomAndPan="magnify"><defs><filter height="300%" id="f1lrqmc0qeyrrc" width="300%" x="-1" y="-1"><feGaussianBlur result="blurOut" stdDeviation="2.0"/><feColorMatrix in="blurOut" result="blurOut2" type="matrix" values="0 0 0 0 0 0 0 0 0 0 0 0 0 0 0 0 0 0 .4 0"/><feOffset dx="4.0" dy="4.0" in="blurOut2" result="blurOut3"/><feBlend in="SourceGraphic" in2="blurOut3" mode="normal"/></filter></defs><g><!--MD5=[36f251b78ac8a3ba2cd8989e5525b0a6]
class digest--><rect fill="#FEFECE" filter="url(#f1lrqmc0qeyrrc)" height="48" id="digest" style="stroke: #A80036; stroke-width: 1.5;" width="71" x="6" y="224"/><ellipse cx="21" cy="240" fill="#ADD1B2" rx="11" ry="11" style="stroke: #A80036; stroke-width: 1.0;"/><path d="M23.3438,235.6719 L23.5156,235.75 C23.7344,235.4375 23.9375,235.3438 24.2344,235.3438 C24.5313,235.3438 24.8125,235.4844 24.9688,235.75 C25.0625,235.9063 25.0781,236.0313 25.0781,236.4688 L25.0781,237.8906 C25.0781,238.3125 25.0469,238.5 24.9375,238.6563 C24.7656,238.875 24.5,239.0156 24.2344,239.0156 C24.0156,239.0156 23.7813,238.9063 23.6406,238.7656 C23.5,238.6406 23.4688,238.5156 23.4063,238.1094 C23.3125,237.7031 23.1406,237.4844 22.6563,237.2031 C22.1875,236.9531 21.5781,236.7969 21,236.7969 C19.2656,236.7969 18.0156,238.1094 18.0156,239.8906 L18.0156,240.9844 C18.0156,242.6875 19.3125,243.7813 21.3594,243.7813 C22.125,243.7813 22.8125,243.6563 23.2344,243.3906 C23.4219,243.2969 23.4219,243.2969 23.875,242.8125 C24.0625,242.625 24.2656,242.5469 24.4844,242.5469 C24.9531,242.5469 25.3438,242.9375 25.3438,243.3906 C25.3438,243.7813 25.0156,244.2344 24.4375,244.6406 C23.6875,245.1875 22.5313,245.4844 21.3125,245.4844 C18.4219,245.4844 16.3125,243.5938 16.3125,241.0156 L16.3125,239.8906 C16.3125,237.1719 18.3125,235.0938 20.9375,235.0938 C21.8125,235.0938 22.4063,235.2344 23.3438,235.6719 Z "/><text fill="#000000" font-family="sans-serif" font-size="12" lengthAdjust="spacingAndGlyphs" textLength="39" x="35" y="244.1543">digest</text><line style="stroke: #A80036; stroke-width: 1.5;" x1="7" x2="76" y1="256" y2="256"/><line style="stroke: #A80036; stroke-width: 1.5;" x1="7" x2="76" y1="264" y2="264"/><!--MD5=[35f284bdfd4b0a667b949265eae48161]
class fuse--><rect fill="#FEFECE" filter="url(#f1lrqmc0qeyrrc)" height="48" id="fuse" style="stroke: #A80036; stroke-width: 1.5;" width="59" x="700" y="332"/><ellipse cx="715" cy="348" fill="#ADD1B2" rx="11" ry="11" style="stroke: #A80036; stroke-width: 1.0;"/><path d="M717.3438,343.6719 L717.5156,343.75 C717.7344,343.4375 717.9375,343.3438 718.2344,343.3438 C718.5313,343.3438 718.8125,343.4844 718.9688,343.75 C719.0625,343.9063 719.0781,344.0313 719.0781,344.4688 L719.0781,345.8906 C719.0781,346.3125 719.0469,346.5 718.9375,346.6563 C718.7656,346.875 718.5,347.0156 718.2344,347.0156 C718.0156,347.0156 717.7813,346.9063 717.6406,346.7656 C717.5,346.6406 717.4688,346.5156 717.4063,346.1094 C717.3125,345.7031 717.1406,345.4844 716.6563,345.2031 C716.1875,344.9531 715.5781,344.7969 715,344.7969 C713.2656,344.7969 712.0156,346.1094 712.0156,347.8906 L712.0156,348.9844 C712.0156,350.6875 713.3125,351.7813 715.3594,351.7813 C716.125,351.7813 716.8125,351.6563 717.2344,351.3906 C717.4219,351.2969 717.4219,351.2969 717.875,350.8125 C718.0625,350.625 718.2656,350.5469 718.4844,350.5469 C718.9531,350.5469 719.3438,350.9375 719.3438,351.3906 C719.3438,351.7813 719.0156,352.2344 718.4375,352.6406 C717.6875,353.1875 716.5313,353.4844 715.3125,353.4844 C712.4219,353.4844 710.3125,351.5938 710.3125,349.0156 L710.3125,347.8906 C710.3125,345.1719 712.3125,343.0938 714.9375,343.0938 C715.8125,343.0938 716.4063,343.2344 717.3438,343.6719 Z "/><text fill="#000000" font-family="sans-serif" font-size="12" lengthAdjust="spacingAndGlyphs" textLength="27" x="729" y="352.1543">fuse</text><line style="stroke: #A80036; stroke-width: 1.5;" x1="701" x2="758" y1="364" y2="364"/><line style="stroke: #A80036; stroke-width: 1.5;" x1="701" x2="758" y1="372" y2="372"/><!--MD5=[50051814d834fd9e3e604bd69d614441]
class generators--><rect fill="#FEFECE" filter="url(#f1lrqmc0qeyrrc)" height="48" id="generators" style="stroke: #A80036; stroke-width: 1.5;" width="102" x="782.5" y="116"/><ellipse cx="797.5" cy="132" fill="#ADD1B2" rx="11" ry="11" style="stroke: #A80036; stroke-width: 1.0;"/><path d="M799.8438,127.6719 L800.0156,127.75 C800.2344,127.4375 800.4375,127.3438 800.7344,127.3438 C801.0313,127.3438 801.3125,127.4844 801.4688,127.75 C801.5625,127.9063 801.5781,128.0313 801.5781,128.4688 L801.5781,129.8906 C801.5781,130.3125 801.5469,130.5 801.4375,130.6563 C801.2656,130.875 801,131.0156 800.7344,131.0156 C800.5156,131.0156 800.2813,130.9063 800.1406,130.7656 C800,130.6406 799.9688,130.5156 799.9063,130.1094 C799.8125,129.7031 799.6406,129.4844 799.1563,129.2031 C798.6875,128.9531 798.0781,128.7969 797.5,128.7969 C795.7656,128.7969 794.5156,130.1094 794.5156,131.8906 L794.5156,132.9844 C794.5156,134.6875 795.8125,135.7813 797.8594,135.7813 C798.625,135.7813 799.3125,135.6563 799.7344,135.3906 C799.9219,135.2969 799.9219,135.2969 800.375,134.8125 C800.5625,134.625 800.7656,134.5469 800.9844,134.5469 C801.4531,134.5469 801.8438,134.9375 801.8438,135.3906 C801.8438,135.7813 801.5156,136.2344 800.9375,136.6406 C800.1875,137.1875 799.0313,137.4844 797.8125,137.4844 C794.9219,137.4844 792.8125,135.5938 792.8125,133.0156 L792.8125,131.8906 C792.8125,129.1719 794.8125,127.0938 797.4375,127.0938 C798.3125,127.0938 798.9063,127.2344 799.8438,127.6719 Z "/><text fill="#000000" font-family="sans-serif" font-size="12" lengthAdjust="spacingAndGlyphs" textLength="70" x="811.5" y="136.1543">generators</text><line style="stroke: #A80036; stroke-width: 1.5;" x1="783.5" x2="883.5" y1="148" y2="148"/><line style="stroke: #A80036; stroke-width: 1.5;" x1="783.5" x2="883.5" y1="156" y2="156"/><!--MD5=[87bc43f96c649710d6e69e2a8654750c]
class shared--><rect fill="#FEFECE" filter="url(#f1lrqmc0qeyrrc)" height="48" id="shared" style="stroke: #A80036; stroke-width: 1.5;" width="76" x="287.5" y="332"/><ellipse cx="302.5" cy="348" fill="#ADD1B2" rx="11" ry="11" style="stroke: #A80036; stroke-width: 1.0;"/><path d="M304.8438,343.6719 L305.0156,343.75 C305.2344,343.4375 305.4375,343.3438 305.7344,343.3438 C306.0313,343.3438 306.3125,343.4844 306.4688,343.75 C306.5625,343.9063 306.5781,344.0313 306.5781,344.4688 L306.5781,345.8906 C306.5781,346.3125 306.5469,346.5 306.4375,346.6563 C306.2656,346.875 306,347.0156 305.7344,347.0156 C305.5156,347.0156 305.2813,346.9063 305.1406,346.7656 C305,346.6406 304.9688,346.5156 304.9063,346.1094 C304.8125,345.7031 304.6406,345.4844 304.1563,345.2031 C303.6875,344.9531 303.0781,344.7969 302.5,344.7969 C300.7656,344.7969 299.5156,346.1094 299.5156,347.8906 L299.5156,348.9844 C299.5156,350.6875 300.8125,351.7813 302.8594,351.7813 C303.625,351.7813 304.3125,351.6563 304.7344,351.3906 C304.9219,351.2969 304.9219,351.2969 305.375,350.8125 C305.5625,350.625 305.7656,350.5469 305.9844,350.5469 C306.4531,350.5469 306.8438,350.9375 306.8438,351.3906 C306.8438,351.7813 306.5156,352.2344 305.9375,352.6406 C305.1875,353.1875 304.0313,353.4844 302.8125,353.4844 C299.9219,353.4844 297.8125,351.5938 297.8125,349.0156 L297.8125,347.8906 C297.8125,345.1719 299.8125,343.0938 302.4375,343.0938 C303.3125,343.0938 303.9063,343.2344 304.8438,343.6719 Z "/><text fill="#000000" font-family="sans-serif" font-size="12" lengthAdjust="spacingAndGlyphs" textLength="44" x="316.5" y="352.1543">shared</text><line style="stroke: #A80036; stroke-width: 1.5;" x1="288.5" x2="362.5" y1="364" y2="364"/><line style="stroke: #A80036; stroke-width: 1.5;" x1="288.5" x2="362.5" y1="372" y2="372"/><!--MD5=[b80c939afa5ff4197137c354dda5c291]
class pcapng--><rect fill="#FEFECE" filter="url(#f1lrqmc0qeyrrc)" height="48" id="pcapng" style="stroke: #A80036; stroke-width: 1.5;" width="79" x="701" y="224"/><ellipse cx="716" cy="240" fill="#ADD1B2" rx="11" ry="11" style="stroke: #A80036; stroke-width: 1.0;"/><path d="M718.3438,235.6719 L718.5156,235.75 C718.7344,235.4375 718.9375,235.3438 719.2344,235.3438 C719.5313,235.3438 719.8125,235.4844 719.9688,235.75 C720.0625,235.9063 720.0781,236.0313 720.0781,236.4688 L720.0781,237.8906 C720.0781,238.3125 720.0469,238.5 719.9375,238.6563 C719.7656,238.875 719.5,239.0156 719.2344,239.0156 C719.0156,239.0156 718.7813,238.9063 718.6406,238.7656 C718.5,238.6406 718.4688,238.5156 718.4063,238.1094 C718.3125,237.7031 718.1406,237.4844 717.6563,237.2031 C717.1875,236.9531 716.5781,236.7969 716,236.7969 C714.2656,236.7969 713.0156,238.1094 713.0156,239.8906 L713.0156,240.9844 C713.0156,242.6875 714.3125,243.7813 716.3594,243.7813 C717.125,243.7813 717.8125,243.6563 718.2344,243.3906 C718.4219,243.2969 718.4219,243.2969 718.875,242.8125 C719.0625,242.625 719.2656,242.5469 719.4844,242.5469 C719.9531,242.5469 720.3438,242.9375 720.3438,243.3906 C720.3438,243.7813 720.0156,244.2344 719.4375,244.6406 C718.6875,245.1875 717.5313,245.4844 716.3125,245.4844 C713.4219,245.4844 711.3125,243.5938 711.3125,241.0156 L711.3125,239.8906 C711.3125,237.1719 713.3125,235.0938 715.9375,235.0938 C716.8125,235.0938 717.4063,235.2344 718.3438,235.6719 Z "/><text fill="#000000" font-family="sans-serif" font-size="12" lengthAdjust="spacingAndGlyphs" textLength="47" x="730" y="244.1543">pcapng</text><line style="stroke: #A80036; stroke-width: 1.5;" x1="702" x2="779" y1="256" y2="256"/><line style="stroke: #A80036; stroke-width: 1.5;" x1="702" x2="779" y1="264" y2="264"/><!--MD5=[c8b404019a3ff21697670516ccdc20b4]
class generic--><rect fill="#FEFECE" filter="url(#f1lrqmc0qeyrrc)" height="48" id="generic" style="stroke: #A80036; stroke-width: 1.5;" width="79" x="515" y="224"/><ellipse cx="530" cy="240" fill="#ADD1B2" rx="11" ry="11" style="stroke: #A80036; stroke-width: 1.0;"/><path d="M532.3438,235.6719 L532.5156,235.75 C532.7344,235.4375 532.9375,235.3438 533.2344,235.3438 C533.5313,235.3438 533.8125,235.4844 533.9688,235.75 C534.0625,235.9063 534.0781,236.0313 534.0781,236.4688 L534.0781,237.8906 C534.0781,238.3125 534.0469,238.5 533.9375,238.6563 C533.7656,238.875 533.5,239.0156 533.2344,239.0156 C533.0156,239.0156 532.7813,238.9063 532.6406,238.7656 C532.5,238.6406 532.4688,238.5156 532.4063,238.1094 C532.3125,237.7031 532.1406,237.4844 531.6563,237.2031 C531.1875,236.9531 530.5781,236.7969 530,236.7969 C528.2656,236.7969 527.0156,238.1094 527.0156,239.8906 L527.0156,240.9844 C527.0156,242.6875 528.3125,243.7813 530.3594,243.7813 C531.125,243.7813 531.8125,243.6563 532.2344,243.3906 C532.4219,243.2969 532.4219,243.2969 532.875,242.8125 C533.0625,242.625 533.2656,242.5469 533.4844,242.5469 C533.9531,242.5469 534.3438,242.9375 534.3438,243.3906 C534.3438,243.7813 534.0156,244.2344 533.4375,244.6406 C532.6875,245.1875 531.5313,245.4844 530.3125,245.4844 C527.4219,245.4844 525.3125,243.5938 525.3125,241.0156 L525.3125,239.8906 C525.3125,237.1719 527.3125,235.0938 529.9375,235.0938 C530.8125,235.0938 531.4063,235.2344 532.3438,235.6719 Z "/><text fill="#000000" font-family="sans-serif" font-size="12" lengthAdjust="spacingAndGlyphs" textLength="47" x="544" y="244.1543">generic</text><line style="stroke: #A80036; stroke-width: 1.5;" x1="516" x2="593" y1="256" y2="256"/><line style="stroke: #A80036; stroke-width: 1.5;" x1="516" x2="593" y1="264" y2="264"/><!--MD5=[4520fda4e10d4d791ce48fe025810cd4]
class main--><rect fill="#FEFECE" filter="url(#f1lrqmc0qeyrrc)" height="48" id="main" style="stroke: #A80036; stroke-width: 1.5;" width="62" x="375.5" y="8"/><ellipse cx="390.5" cy="24" fill="#ADD1B2" rx="11" ry="11" style="stroke: #A80036; stroke-width: 1.0;"/><path d="M392.8438,19.6719 L393.0156,19.75 C393.2344,19.4375 393.4375,19.3438 393.7344,19.3438 C394.0313,19.3438 394.3125,19.4844 394.4688,19.75 C394.5625,19.9063 394.5781,20.0313 394.5781,20.4688 L394.5781,21.8906 C394.5781,22.3125 394.5469,22.5 394.4375,22.6563 C394.2656,22.875 394,23.0156 393.7344,23.0156 C393.5156,23.0156 393.2813,22.9063 393.1406,22.7656 C393,22.6406 392.9688,22.5156 392.9063,22.1094 C392.8125,21.7031 392.6406,21.4844 392.1563,21.2031 C391.6875,20.9531 391.0781,20.7969 390.5,20.7969 C388.7656,20.7969 387.5156,22.1094 387.5156,23.8906 L387.5156,24.9844 C387.5156,26.6875 388.8125,27.7813 390.8594,27.7813 C391.625,27.7813 392.3125,27.6563 392.7344,27.3906 C392.9219,27.2969 392.9219,27.2969 393.375,26.8125 C393.5625,26.625 393.7656,26.5469 393.9844,26.5469 C394.4531,26.5469 394.8438,26.9375 394.8438,27.3906 C394.8438,27.7813 394.5156,28.2344 393.9375,28.6406 C393.1875,29.1875 392.0313,29.4844 390.8125,29.4844 C387.9219,29.4844 385.8125,27.5938 385.8125,25.0156 L385.8125,23.8906 C385.8125,21.1719 387.8125,19.0938 390.4375,19.0938 C391.3125,19.0938 391.9063,19.2344 392.8438,19.6719 Z "/><text fill="#000000" font-family="sans-serif" font-size="12" lengthAdjust="spacingAndGlyphs" textLength="30" x="404.5" y="28.1543">main</text><line style="stroke: #A80036; stroke-width: 1.5;" x1="376.5" x2="436.5" y1="40" y2="40"/><line style="stroke: #A80036; stroke-width: 1.5;" x1="376.5" x2="436.5" y1="48" y2="48"/><!--MD5=[72f29df752c3079b49900b6eb360eec4]
class output--><rect fill="#FEFECE" filter="url(#f1lrqmc0qeyrrc)" height="48" id="output" style="stroke: #A80036; stroke-width: 1.5;" width="74" x="94.5" y="116"/><ellipse cx="109.5" cy="132" fill="#ADD1B2" rx="11" ry="11" style="stroke: #A80036; stroke-width: 1.0;"/><path d="M111.8438,127.6719 L112.0156,127.75 C112.2344,127.4375 112.4375,127.3438 112.7344,127.3438 C113.0313,127.3438 113.3125,127.4844 113.4688,127.75 C113.5625,127.9063 113.5781,128.0313 113.5781,128.4688 L113.5781,129.8906 C113.5781,130.3125 113.5469,130.5 113.4375,130.6563 C113.2656,130.875 113,131.0156 112.7344,131.0156 C112.5156,131.0156 112.2813,130.9063 112.1406,130.7656 C112,130.6406 111.9688,130.5156 111.9063,130.1094 C111.8125,129.7031 111.6406,129.4844 111.1563,129.2031 C110.6875,128.9531 110.0781,128.7969 109.5,128.7969 C107.7656,128.7969 106.5156,130.1094 106.5156,131.8906 L106.5156,132.9844 C106.5156,134.6875 107.8125,135.7813 109.8594,135.7813 C110.625,135.7813 111.3125,135.6563 111.7344,135.3906 C111.9219,135.2969 111.9219,135.2969 112.375,134.8125 C112.5625,134.625 112.7656,134.5469 112.9844,134.5469 C113.4531,134.5469 113.8438,134.9375 113.8438,135.3906 C113.8438,135.7813 113.5156,136.2344 112.9375,136.6406 C112.1875,137.1875 111.0313,137.4844 109.8125,137.4844 C106.9219,137.4844 104.8125,135.5938 104.8125,133.0156 L104.8125,131.8906 C104.8125,129.1719 106.8125,127.0938 109.4375,127.0938 C110.3125,127.0938 110.9063,127.2344 111.8438,127.6719 Z "/><text fill="#000000" font-family="sans-serif" font-size="12" lengthAdjust="spacingAndGlyphs" textLength="42" x="123.5" y="136.1543">output</text><line style="stroke: #A80036; stroke-width: 1.5;" x1="95.5" x2="167.5" y1="148" y2="148"/><line style="stroke: #A80036; stroke-width: 1.5;" x1="95.5" x2="167.5" y1="156" y2="156"/><!--MD5=[7c09940b1549fcfb479c56b03efa7db0]
class patterns--><rect fill="#FEFECE" filter="url(#f1lrqmc0qeyrrc)" height="48" id="patterns" style="stroke: #A80036; stroke-width: 1.5;" width="86" x="590.5" y="116"/><ellipse cx="605.5" cy="132" fill="#ADD1B2" rx="11" ry="11" style="stroke: #A80036; stroke-width: 1.0;"/><path d="M607.8438,127.6719 L608.0156,127.75 C608.2344,127.4375 608.4375,127.3438 608.7344,127.3438 C609.0313,127.3438 609.3125,127.4844 609.4688,127.75 C609.5625,127.9063 609.5781,128.0313 609.5781,128.4688 L609.5781,129.8906 C609.5781,130.3125 609.5469,130.5 609.4375,130.6563 C609.2656,130.875 609,131.0156 608.7344,131.0156 C608.5156,131.0156 608.2813,130.9063 608.1406,130.7656 C608,130.6406 607.9688,130.5156 607.9063,130.1094 C607.8125,129.7031 607.6406,129.4844 607.1563,129.2031 C606.6875,128.9531 606.0781,128.7969 605.5,128.7969 C603.7656,128.7969 602.5156,130.1094 602.5156,131.8906 L602.5156,132.9844 C602.5156,134.6875 603.8125,135.7813 605.8594,135.7813 C606.625,135.7813 607.3125,135.6563 607.7344,135.3906 C607.9219,135.2969 607.9219,135.2969 608.375,134.8125 C608.5625,134.625 608.7656,134.5469 608.9844,134.5469 C609.4531,134.5469 609.8438,134.9375 609.8438,135.3906 C609.8438,135.7813 609.5156,136.2344 608.9375,136.6406 C608.1875,137.1875 607.0313,137.4844 605.8125,137.4844 C602.9219,137.4844 600.8125,135.5938 600.8125,133.0156 L600.8125,131.8906 C600.8125,129.1719 602.8125,127.0938 605.4375,127.0938 C606.3125,127.0938 606.9063,127.2344 607.8438,127.6719 Z "/><text fill="#000000" font-family="sans-serif" font-size="12" lengthAdjust="spacingAndGlyphs" textLength="54" x="619.5" y="136.1543">patterns</text><line style="stroke: #A80036; stroke-width: 1.5;" x1="591.5" x2="675.5" y1="148" y2="148"/><line style="stroke: #A80036; stroke-width: 1.5;" x1="591.5" x2="675.5" y1="156" y2="156"/><!--MD5=[32296763c65092e3047a1930e657072f]
class mutations--><rect fill="#FEFECE" filter="url(#f1lrqmc0qeyrrc)" height="48" id="mutations" style="stroke: #A80036; stroke-width: 1.5;" width="95" x="359" y="116"/><ellipse cx="374" cy="132" fill="#ADD1B2" rx="11" ry="11" style="stroke: #A80036; stroke-width: 1.0;"/><path d="M376.3438,127.6719 L376.5156,127.75 C376.7344,127.4375 376.9375,127.3438 377.2344,127.3438 C377.5313,127.3438 377.8125,127.4844 377.9688,127.75 C378.0625,127.9063 378.0781,128.0313 378.0781,128.4688 L378.0781,129.8906 C378.0781,130.3125 378.0469,130.5 377.9375,130.6563 C377.7656,130.875 377.5,131.0156 377.2344,131.0156 C377.0156,131.0156 376.7813,130.9063 376.6406,130.7656 C376.5,130.6406 376.4688,130.5156 376.4063,130.1094 C376.3125,129.7031 376.1406,129.4844 375.6563,129.2031 C375.1875,128.9531 374.5781,128.7969 374,128.7969 C372.2656,128.7969 371.0156,130.1094 371.0156,131.8906 L371.0156,132.9844 C371.0156,134.6875 372.3125,135.7813 374.3594,135.7813 C375.125,135.7813 375.8125,135.6563 376.2344,135.3906 C376.4219,135.2969 376.4219,135.2969 376.875,134.8125 C377.0625,134.625 377.2656,134.5469 377.4844,134.5469 C377.9531,134.5469 378.3438,134.9375 378.3438,135.3906 C378.3438,135.7813 378.0156,136.2344 377.4375,136.6406 C376.6875,137.1875 375.5313,137.4844 374.3125,137.4844 C371.4219,137.4844 369.3125,135.5938 369.3125,133.0156 L369.3125,131.8906 C369.3125,129.1719 371.3125,127.0938 373.9375,127.0938 C374.8125,127.0938 375.4063,127.2344 376.3438,127.6719 Z "/><text fill="#000000" font-family="sans-serif" font-size="12" lengthAdjust="spacingAndGlyphs" textLength="63" x="388" y="136.1543">mutations</text><line style="stroke: #A80036; stroke-width: 1.5;" x1="360" x2="453" y1="148" y2="148"/><line style="stroke: #A80036; stroke-width: 1.5;" x1="360" x2="453" y1="156" y2="156"/><!--MD5=[1d67b6d84bee70fd595bd9fad3459546]
class split--><rect fill="#FEFECE" filter="url(#f1lrqmc0qeyrrc)" height="48" id="split" style="stroke: #A80036; stroke-width: 1.5;" width="58" x="421.5" y="224"/><ellipse cx="436.5" cy="240" fill="#ADD1B2" rx="11" ry="11" style="stroke: #A80036; stroke-width: 1.0;"/><path d="M438.8438,235.6719 L439.0156,235.75 C439.2344,235.4375 439.4375,235.3438 439.7344,235.3438 C440.0313,235.3438 440.3125,235.4844 440.4688,235.75 C440.5625,235.9063 440.5781,236.0313 440.5781,236.4688 L440.5781,237.8906 C440.5781,238.3125 440.5469,238.5 440.4375,238.6563 C440.2656,238.875 440,239.0156 439.7344,239.0156 C439.5156,239.0156 439.2813,238.9063 439.1406,238.7656 C439,238.6406 438.9688,238.5156 438.9063,238.1094 C438.8125,237.7031 438.6406,237.4844 438.1563,237.2031 C437.6875,236.9531 437.0781,236.7969 436.5,236.7969 C434.7656,236.7969 433.5156,238.1094 433.5156,239.8906 L433.5156,240.9844 C433.5156,242.6875 434.8125,243.7813 436.8594,243.7813 C437.625,243.7813 438.3125,243.6563 438.7344,243.3906 C438.9219,243.2969 438.9219,243.2969 439.375,242.8125 C439.5625,242.625 439.7656,242.5469 439.9844,242.5469 C440.4531,242.5469 440.8438,242.9375 440.8438,243.3906 C440.8438,243.7813 440.5156,244.2344 439.9375,244.6406 C439.1875,245.1875 438.0313,245.4844 436.8125,245.4844 C433.9219,245.4844 431.8125,243.5938 431.8125,241.0156 L431.8125,239.8906 C431.8125,237.1719 433.8125,235.0938 436.4375,235.0938 C437.3125,235.0938 437.9063,235.2344 438.8438,235.6719 Z "/><text fill="#000000" font-family="sans-serif" font-size="12" lengthAdjust="spacingAndGlyphs" textLength="26" x="450.5" y="244.1543">split</text><line style="stroke: #A80036; stroke-width: 1.5;" x1="422.5" x2="478.5" y1="256" y2="256"/><line style="stroke: #A80036; stroke-width: 1.5;" x1="422.5" x2="478.5" y1="264" y2="264"/><!--MD5=[cbcc07a8f08a22514b68459ba299c345]
class xp--><rect fill="#FEFECE" filter="url(#f1lrqmc0qeyrrc)" height="48" id="xp" style="stroke: #A80036; stroke-width: 1.5;" width="46" x="340.5" y="224"/><ellipse cx="355.5" cy="240" fill="#ADD1B2" rx="11" ry="11" style="stroke: #A80036; stroke-width: 1.0;"/><path d="M357.8438,235.6719 L358.0156,235.75 C358.2344,235.4375 358.4375,235.3438 358.7344,235.3438 C359.0313,235.3438 359.3125,235.4844 359.4688,235.75 C359.5625,235.9063 359.5781,236.0313 359.5781,236.4688 L359.5781,237.8906 C359.5781,238.3125 359.5469,238.5 359.4375,238.6563 C359.2656,238.875 359,239.0156 358.7344,239.0156 C358.5156,239.0156 358.2813,238.9063 358.1406,238.7656 C358,238.6406 357.9688,238.5156 357.9063,238.1094 C357.8125,237.7031 357.6406,237.4844 357.1563,237.2031 C356.6875,236.9531 356.0781,236.7969 355.5,236.7969 C353.7656,236.7969 352.5156,238.1094 352.5156,239.8906 L352.5156,240.9844 C352.5156,242.6875 353.8125,243.7813 355.8594,243.7813 C356.625,243.7813 357.3125,243.6563 357.7344,243.3906 C357.9219,243.2969 357.9219,243.2969 358.375,242.8125 C358.5625,242.625 358.7656,242.5469 358.9844,242.5469 C359.4531,242.5469 359.8438,242.9375 359.8438,243.3906 C359.8438,243.7813 359.5156,244.2344 358.9375,244.6406 C358.1875,245.1875 357.0313,245.4844 355.8125,245.4844 C352.9219,245.4844 350.8125,243.5938 350.8125,241.0156 L350.8125,239.8906 C350.8125,237.1719 352.8125,235.0938 355.4375,235.0938 C356.3125,235.0938 356.9063,235.2344 357.8438,235.6719 Z "/><text fill="#000000" font-family="sans-serif" font-size="12" lengthAdjust="spacingAndGlyphs" textLength="14" x="369.5" y="244.1543">xp</text><line style="stroke: #A80036; stroke-width: 1.5;" x1="341.5" x2="385.5" y1="256" y2="256"/><line style="stroke: #A80036; stroke-width: 1.5;" x1="341.5" x2="385.5" y1="264" y2="264"/><!--MD5=[46c7441f3bb6c69a757e33c1f21008d2]
link generators to shared--><path d="M834.128,164.209 C833.576,193.786 827.853,244.378 797.5,272 C734.869,328.9975 473.399,347.8301 368.913,353.1537 " fill="none" id="generators-&gt;shared" style="stroke: #A80036; stroke-width: 1.0;"/><polygon fill="#A80036" points="363.757,353.4119,372.9457,356.9569,368.7507,353.1619,372.5457,348.9669,363.757,353.4119" style="stroke: #A80036; stroke-width: 1.0;"/><!--MD5=[c3d0e76d02240877023a02396c5da38e]
link generators to fuse--><path d="M846.992,164.199 C860.968,191.552 878.331,237.636 859.5,272 C839.346,308.7788 795.193,331.622 763.951,343.8148 " fill="none" id="generators-&gt;fuse" style="stroke: #A80036; stroke-width: 1.0;"/><polygon fill="#A80036" points="759.053,345.6807,768.8874,346.2145,763.7254,343.9007,766.0393,338.7387,759.053,345.6807" style="stroke: #A80036; stroke-width: 1.0;"/><!--MD5=[2fc00bde72a880a4fc6f5b60ad3f0971]
link generators to pcapng--><path d="M813.32,164 C798.917,180.417 779.491,202.559 764.325,219.844 " fill="none" id="generators-&gt;pcapng" style="stroke: #A80036; stroke-width: 1.0;"/><polygon fill="#A80036" points="760.961,223.678,769.9031,219.5501,764.2583,219.9193,763.8891,214.2745,760.961,223.678" style="stroke: #A80036; stroke-width: 1.0;"/><!--MD5=[b0a5279e3580f1ecf3d929662c6579e0]
link generic to fuse--><path d="M592.472,272 C623.102,290.5534 665.806,316.4194 695.364,334.3235 " fill="none" id="generic-&gt;fuse" style="stroke: #A80036; stroke-width: 1.0;"/><polygon fill="#A80036" points="699.991,337.1262,694.3647,329.0426,695.7141,334.5361,690.2206,335.8855,699.991,337.1262" style="stroke: #A80036; stroke-width: 1.0;"/><!--MD5=[94275bc669bccfa788e0a7a76fe7a411]
link main to generators--><path d="M437.924,39.884 C499.244,53.446 639.042,85.005 755.5,116 C762.594,117.888 770.025,119.958 777.363,122.058 " fill="none" id="main-&gt;generators" style="stroke: #A80036; stroke-width: 1.0;"/><polygon fill="#A80036" points="782.422,123.515,774.8813,117.1795,777.6175,122.1306,772.6664,124.8668,782.422,123.515" style="stroke: #A80036; stroke-width: 1.0;"/><!--MD5=[c431f1a70e2e890bf3b0ac5200b12f13]
link main to output--><path d="M375.489,44.953 C325.993,64.032 229.062,101.394 173.43,122.838 " fill="none" id="main-&gt;output" style="stroke: #A80036; stroke-width: 1.0;"/><polygon fill="#A80036" points="168.508,124.735,178.3445,125.2291,173.1732,122.9361,175.4662,117.7648,168.508,124.735" style="stroke: #A80036; stroke-width: 1.0;"/><!--MD5=[93b424d85981dc8f72f2f1b87f377f05]
link main to digest--><path d="M375.415,36.788 C301.688,46.383 119.21,73.913 76.5,116 C49.1129,142.988 42.4255,188.865 41.1725,218.541 " fill="none" id="main-&gt;digest" style="stroke: #A80036; stroke-width: 1.0;"/><polygon fill="#A80036" points="40.998,223.886,45.2916,215.0223,41.1623,218.8887,37.2959,214.7594,40.998,223.886" style="stroke: #A80036; stroke-width: 1.0;"/><!--MD5=[347cabee92f2cf471077631f2961a5a9]
link main to patterns--><path d="M437.587,47.517 C475.78,65.351 540.985,95.799 585.6,116.632 " fill="none" id="main-&gt;patterns" style="stroke: #A80036; stroke-width: 1.0;"/><polygon fill="#A80036" points="590.392,118.87,583.9302,111.4373,585.8617,116.7542,580.5449,118.6857,590.392,118.87" style="stroke: #A80036; stroke-width: 1.0;"/><!--MD5=[d5b9ddcccbefe68c4d1ef074bf138935]
link main to mutations--><path d="M406.5,56 C406.5,72.003 406.5,93.446 406.5,110.528 " fill="none" id="main-&gt;mutations" style="stroke: #A80036; stroke-width: 1.0;"/><polygon fill="#A80036" points="406.5,115.678,410.5,106.678,406.5,110.678,402.5,106.678,406.5,115.678" style="stroke: #A80036; stroke-width: 1.0;"/><!--MD5=[f17698867eb5cae64f17c34cb32a6764]
link main to shared--><path d="M384.809,56.161 C370.89,72.019 353.282,94.073 341.5,116 C317.551,160.57 313.605,174.057 305.5,224 C299.765,259.342 308.394,300.1259 316.042,326.6748 " fill="none" id="main-&gt;shared" style="stroke: #A80036; stroke-width: 1.0;"/><polygon fill="#A80036" points="317.554,331.789,318.8379,322.0242,316.1363,326.9942,311.1663,324.2925,317.554,331.789" style="stroke: #A80036; stroke-width: 1.0;"/><!--MD5=[c062e55628c9aa5350d4d3e1906c9358]
link main to pcapng--><path d="M437.731,33.187 C495.763,35.229 620.9,47.833 693.5,116 C722.39,143.126 733.554,189.265 737.846,218.92 " fill="none" id="main-&gt;pcapng" style="stroke: #A80036; stroke-width: 1.0;"/><polygon fill="#A80036" points="738.524,223.894,741.2711,214.436,737.8483,218.9399,733.3444,215.5171,738.524,223.894" style="stroke: #A80036; stroke-width: 1.0;"/><!--MD5=[929876f7f771604f38066998e1eeaf95]
link mutations to generic--><path d="M438.614,164 C462,180.75 493.709,203.461 518.047,220.892 " fill="none" id="mutations-&gt;generic" style="stroke: #A80036; stroke-width: 1.0;"/><polygon fill="#A80036" points="522.194,223.862,517.2069,215.3691,518.1293,220.9503,512.5481,221.8727,522.194,223.862" style="stroke: #A80036; stroke-width: 1.0;"/><!--MD5=[d5115f4b413f4f36382c8a547e9641d4]
link mutations to split--><path d="M416.047,164 C422.747,180.141 431.744,201.816 438.864,218.969 " fill="none" id="mutations-&gt;split" style="stroke: #A80036; stroke-width: 1.0;"/><polygon fill="#A80036" points="440.819,223.678,441.0656,213.8322,438.9033,219.0595,433.676,216.8973,440.819,223.678" style="stroke: #A80036; stroke-width: 1.0;"/><!--MD5=[497bb3db232f9008303e8e59f4d73d91]
link mutations to xp--><path d="M397.17,164 C390.622,180.141 381.829,201.816 374.871,218.969 " fill="none" id="mutations-&gt;xp" style="stroke: #A80036; stroke-width: 1.0;"/><polygon fill="#A80036" points="372.961,223.678,380.0516,216.8426,374.8411,219.0449,372.6387,213.8344,372.961,223.678" style="stroke: #A80036; stroke-width: 1.0;"/><!--MD5=[2f56f24887711c7b9c46bb0450b48813]
link mutations to shared--><path d="M372.086,164.339 C353.615,179.036 332.615,199.786 322.5,224 C308.632,257.199 313.044,299.3767 318.443,326.7679 " fill="none" id="mutations-&gt;shared" style="stroke: #A80036; stroke-width: 1.0;"/><polygon fill="#A80036" points="319.458,331.7049,321.5627,322.0836,318.4506,326.8074,313.7268,323.6953,319.458,331.7049" style="stroke: #A80036; stroke-width: 1.0;"/><!--MD5=[6127560d9965552eac9192b2845cb532]
link output to digest--><path d="M111.971,164 C98.0329,180.417 79.2331,202.559 64.5566,219.844 " fill="none" id="output-&gt;digest" style="stroke: #A80036; stroke-width: 1.0;"/><polygon fill="#A80036" points="61.3013,223.678,70.1761,219.4075,64.538,219.867,64.0785,214.2288,61.3013,223.678" style="stroke: #A80036; stroke-width: 1.0;"/><!--MD5=[caf12cc6027ef464b573b75e1b359e8e]
link output to shared--><path d="M137.378,164.143 C145.47,192.281 162.332,239.972 190.5,272 C215.853,300.8274 253.675,322.8879 282.842,336.994 " fill="none" id="output-&gt;shared" style="stroke: #A80036; stroke-width: 1.0;"/><polygon fill="#A80036" points="287.445,339.1894,281.0441,331.7042,282.9322,337.0366,277.5997,338.9247,287.445,339.1894" style="stroke: #A80036; stroke-width: 1.0;"/><!--MD5=[6f998b8fff8c1da98428330fc7b244de]
link patterns to shared--><path d="M636.467,164.487 C638.739,193.421 637.874,242.372 611.5,272 C549.308,341.8641 432.184,354.4346 368.828,355.7984 " fill="none" id="patterns-&gt;shared" style="stroke: #A80036; stroke-width: 1.0;"/><polygon fill="#A80036" points="363.615,355.8879,372.6822,359.733,368.6143,355.8022,372.5451,351.7342,363.615,355.8879" style="stroke: #A80036; stroke-width: 1.0;"/><!--MD5=[d2db5e2b932a883d85c5f90d5beb96ab]
link patterns to pcapng--><path d="M656.717,164 C673.289,180.417 695.64,202.559 713.088,219.844 " fill="none" id="patterns-&gt;pcapng" style="stroke: #A80036; stroke-width: 1.0;"/><polygon fill="#A80036" points="716.958,223.678,713.3779,214.5029,713.4054,220.1596,707.7486,220.1871,716.958,223.678" style="stroke: #A80036; stroke-width: 1.0;"/><!--MD5=[ff7224f962723968c3a6b5a5d9c88e14]
link xp to shared--><path d="M355.255,272 C349.468,288.1409 341.698,309.8162 335.549,326.9688 " fill="none" id="xp-&gt;shared" style="stroke: #A80036; stroke-width: 1.0;"/><polygon fill="#A80036" points="333.861,331.6784,340.6641,324.5568,335.5487,326.9719,333.1337,321.8564,333.861,331.6784" style="stroke: #A80036; stroke-width: 1.0;"/><!--MD5=[be33d0da96c78ce2e8e99124db513a55]
@startuml
class digest

class fuse

class generators
generators - -> shared
generators - -> fuse
generators - -> pcapng

class generic
generic - -> fuse

class main
main - -> generators
main - -> output
main - -> digest
main - -> patterns
main - -> mutations
main - -> shared
main - -> pcapng

class mutations
mutations - -> generic
mutations - -> split
mutations - -> xp
mutations - -> shared

class output
output - -> digest
output - -> shared

class patterns
patterns - -> shared
patterns - -> pcapng

class pcapng

class shared

class split

class xp
xp - -> shared
@enduml

PlantUML version 1.2019.11(Sun Sep 22 10:02:15 UTC 2019)
(GPL source distribution)
Java Runtime: Java(TM) SE Runtime Environment
JVM: Java HotSpot(TM) 64-Bit Server VM
Java Version: 1.7.0_25-b15
Operating System: Linux
Default Encoding: UTF-8
Language: en
Country: US
--></g></svg>